660.63
660.83
660.63
660.44
660.83
660.44
660.63
660.63
660.83
660.44
660.63
660.83
660.63
660.63
660.83
660.63
660.44
660.63
660.63
660.63
660.63
660.63
660.44
660.63
660.63
660.25
660.63
660.83
660.44
660.63
660.63
660.63
660.83
660.83
660.25
660.44
660.63
660.44
660.44
660.63
660.44
660.44
660.25
660.44
660.63
660.83
661.22
662.58
665.87
670.52
684.6
697.65
710.63
720.31
725.99
727.13
727.69
728.26
728.45
728.83
729.21
729.02
728.45
728.45
728.64
728.64
728.26
728.64
728.45
729.02
728.83
728.26
728.45
727.69
727.69
727.69
727.88
728.07
727.88
728.26
728.26
728.07
728.83
727.69
727.69
728.07
727.69
727.69
727.88
727.88
728.45
728.64
728.45
728.45
728.45
728.26
729.02
728.45
728.64
728.83
728.83
728.64
729.02
728.26
729.21
728.64
729.02
728.83
727.69
729.02
728.83
728.45
729.02
728.45
728.64
728.64
728.45
728.64
728.83
729.02
728.83
728.83
728.07
728.64
728.64
728.83
728.64
728.45
728.45
728.45
728.64
728.83
728.83
728.83
728.26
728.83
728.64
728.64
725.99
717.85
705.86
691.9
680.37
683.26
686.72
680.95
681.52
675.55
673.81
674
668.39
670.52
666.65
666.45
667.81
664.32
666.26
663.35
661.99
663.35
660.83
661.41
660.44
660.05
660.25
659.27
659.86
659.47
659.27
659.66
659.27
659.66
659.47
659.27
659.47
659.27
659.27
659.27
659.27
659.27
659.27
659.27
659.27
659.08
659.27
659.27
659.08
659.47
659.08
659.27
659.27
659.47
659.27
659.27
659.08
659.47
659.47
659.47
659.27
659.66
659.27
659.47
659.47
659.27
659.27
659.08
659.47
659.08
659.27
659.47
659.27
659.47
659.27
659.47
659.47
659.47
659.27
659.47
659.47
659.27
659.27
659.08
659.47
659.47
659.47
659.47
659.27
659.47
659.47
659.47
659.27
659.27
659.47
659.27
659.27
659.47
659.27
659.47
659.27
659.66
659.47
659.66
659.86
661.41
663.16
667.23
670.13
672.65
674.58
674.77
676.12
676.7
676.9
677.28
677.67
677.86
677.67
677.86
677.67
678.05
678.05
678.05
678.25
678.44
678.25
678.05
678.25
678.05
678.25
678.25
678.25
678.44
678.25
678.25
678.25
678.44
678.44
678.44
678.44
678.25
678.44
678.63
678.44
678.63
678.25
678.63
678.44
678.25
678.44
678.44
678.63
678.63
678.63
678.63
678.44
678.63
678.63
678.63
678.44
678.63
678.44
678.63
678.44
678.83
678.63
678.44
678.63
678.63
678.44
678.44
678.44
678.44
678.44
678.44
678.63
678.44
678.44
678.44
678.63
678.63
678.44
678.63
678.63
678.44
678.25
678.83
678.25
678.05
678.44
678.25
677.86
677.09
675.35
673.81
670.52
670.33
667.81
667.62
666.65
664.52
664.9
663.55
663.55
663.35
662.19
662.38
661.41
661.22
661.61
661.02
661.02
660.44
660.83
660.83
660.63
660.83
660.44
660.25
660.63
660.25
660.63
660.63
660.44
660.83
660.44
660.44
660.44
660.44
660.44
660.63
660.25
660.25
660.63
660.63
660.25
660.44
660.44
660.63
660.25
660.44
660.44
660.05
660.44
660.63
660.83
660.44
660.25
660.44
660.63
660.44
660.44
660.05
660.44
660.63
660.44
660.25
660.44
660.44
660.44
660.25
660.44
660.25
660.63
660.44
660.25
660.44
660.63
661.02
660.44
660.44
660.44
660.44
660.63
660.44
660.44
660.63
660.44
660.63
660.44
660.25
660.44
660.63
660.83
660.44
660.25
660.63
660.63
660.44
660.25
660.44
660.25
660.44
660.63
660.25
660.44
660.44
660.44
660.63
660.44
660.25
660.44
660.44
660.63
660.44
660.63
660.44
660.44
660.25
660.44
660.63
661.02
661.8
662.96
663.74
664.71
665.29
666.07
666.45
667.23
667.23
667.62
667.62
668
668.2
668.2
668.58
668.58
668.78
668.78
668.78
668.78
668.78
668.97
668.97
668.97
668.97
669.17
669.17
668.97
669.17
668.97
669.36
669.17
669.36
669.36
669.36
669.17
669.55
669.36
669.17
669.36
669.17
669.55
669.36
669.55
669.36
669.55
669.55
669.36
669.55
669.36
669.55
669.36
669.55
669.55
669.55
669.55
669.55
669.55
669.75
669.75
669.75
669.55
669.55
669.55
669.75
669.94
669.55
669.94
669.94
669.75
669.55
669.55
669.75
669.75
669.75
670.13
669.75
669.75
669.75
669.75
669.75
669.75
669.55
669.75
669.75
669.55
669.75
669.55
669.75
669.75
669.94
669.75
669.55
669.75
669.94
669.75
669.36
668.78
667.81
667.04
666.65
666.45
665.49
665.49
665.49
665.1
664.71
664.52
664.9
664.32
664.52
664.52
664.32
664.52
664.32
664.32
664.52
664.52
664.52
664.52
664.32
664.32
664.32
664.32
664.52
664.32
664.52
664.71
664.32
664.32
664.32
664.32
664.32
664.52
664.32
664.13
664.52
664.52
664.52
664.32
664.32
664.32
664.71
664.13
664.32
664.13
664.32
664.52
664.13
664.52
664.13
664.32
664.32
664.32
664.52
664.52
664.32
664.32
664.32
664.52
664.32
664.52
664.32
664.13
664.32
664.32
664.52
664.13
664.13
664.32
664.13
664.13
664.13
664.32
664.32
664.13
664.32
664.13
664.32
664.32
664.13
664.32
664.13
664.13
664.13
664.32
664.13
664.32
664.13
664.13
663.93
664.13
664.13
664.32
664.52
664.32
664.13
664.32
664.13
664.32
664.13
664.52
664.32
664.32
664.52
664.13
664.13
664.13
664.13
664.13
664.9
665.68
667.81
675.16
681.72
702.24
716.9
725.24
728.26
729.77
730.34
730.34
729.96
730.15
730.15
729.58
729.96
729.96
729.96
730.53
730.53
731.09
731.66
731.47
732.22
731.66
731.28
731.66
731.85
731.28
731.28
731.66
731.28
731.09
731.47
731.47
731.47
731.85
731.85
731.47
731.66
731.66
731.28
732.22
731.85
731.66
731.47
732.22
732.04
731.85
732.04
731.85
732.6
732.22
732.22
732.22
732.22
732.04
732.22
732.04
732.6
732.22
732.6
732.79
732.6
732.6
731.09
722.02
702.62
684.99
674.58
682.68
682.29
684.99
685.37
678.63
673.23
675.55
673.23
670.52
665.68
666.26
665.1
664.13
664.13
663.93
663.93
663.74
663.35
663.55
665.29
664.32
664.32
663.55
663.74
663.74
663.74
663.55
663.35
663.16
663.35
663.16
662.96
663.16
663.35
663.16
663.16
663.16
663.16
662.96
662.96
663.16
663.35
663.16
663.16
663.16
663.35
662.96
663.16
663.16
663.35
663.16
663.16
663.16
663.16
662.96
663.35
663.35
663.35
663.16
663.16
663.35
663.16
663.35
663.16
663.16
663.35
663.16
663.16
662.96
662.96
663.16
663.16
663.16
663.16
662.96
663.16
663.35
663.16
663.16
663.16
663.16
663.16
663.16
663.16
663.16
663.16
662.77
663.16
663.16
662.96
663.35
663.16
663.16
662.77
663.16
663.16
663.16
663.16
662.96
663.35
663.16
662.96
663.16
663.16
663.35
663.16
662.96
662.96
662.96
663.35
662.96
663.16
663.16
